class Bank1():

    def __init__(self, name, age, gender):

        self.name = name

        self.age = age

        self.gerder = gender



    def show_details(self):

        print("Personal details")

        print(" ")

        print("Name", self.mame)

        print("Age", self.age)

        print("Gender", self.gerder)

        ares = Bank1('Ares', 21, 'Male')

        ares.show_details()



class customer(Bank1):

    
